{
  "images" : [
    {
      "idiom" : "iphone",
      "scale" : "1x"
    },
    {
      "idiom" : "iphone",
      "scale" : "2x",
      "filename" : "workout copy.png"
    },
    {
      "idiom" : "iphone",
      "scale" : "3x",
      "filename" : "workout.png"
    }
  ],
  "info" : {
    "version" : 1,
    "author" : "xcode"
  }
}